<?xml version="1.0" encoding="UTF-8"?>
<svg width="310px" height="218px" viewBox="0 0 310 218" version="1.1" xmlns="http://www.w3.org/2000/svg" xmlns:xlink="http://www.w3.org/1999/xlink">
    <!-- Generator: sketchtool 57 (101010) - https://sketch.com -->
    <title>77B5BE71-D558-424F-97FD-AE314249AF6D</title>
    <desc>Created with sketchtool.</desc>
    <g id="Customer" stroke="none" stroke-width="1" fill="none" fill-rule="evenodd">
        <g id="onboarding-3" transform="translate(-50.000000, -170.000000)">
            <g id="Group-4" transform="translate(49.000000, 170.000000)">
                <g id="paired" transform="translate(0.000000, 44.000000)" fill-rule="nonzero">
                    <g id="_Group_2" opacity="0.2" transform="translate(1.500000, 11.558352)" fill="#FFFFFF">
                        <path d="M45.7334174,138.742183 C105.974243,170.338559 203.599817,170.338559 263.819381,138.742183 C324.038945,107.145808 324.060206,55.9111354 263.819381,24.3147598 C203.578555,-7.28161572 105.952982,-7.28873362 45.7263303,24.3147598 C-14.5003211,55.9182533 -14.4932339,107.13869 45.7334174,138.742183 Z" id="_Path_"></path>
                    </g>
                    <g id="_Group_176" transform="translate(0.500000, 58.558352)">
                        <g id="_Group_177" transform="translate(8.615385, 0.000000)">
                            <g id="_Group_178" fill="#1B2E5A">
                                <path d="M15.6512821,38.3827869 C17.2638953,33.7717764 18.3005354,28.9856306 18.7384615,24.1293443 C19.2984615,16.6995082 15.6369231,5.31508197 8.90974359,1.50147541 C2.1825641,-2.31213115 -1.44307692,2.40377049 0.804102564,6.43590164 C3.05128205,10.4680328 10.6615385,21.9440984 10.7620513,31.8129508 L15.6512821,38.3827869 Z" id="_Path_122"></path>
                            </g>
                            <g id="_Group_179" transform="translate(5.743590, 3.524590)" fill="#FFFFFF">
                                <path d="M7.56717949,34.6960656 L7.50974359,34.6960656 C7.31229782,34.6636318 7.17798384,34.481517 7.20820513,34.2872131 L7.20820513,34.1955738 C8.19763575,28.8000385 8.30427431,23.2840898 7.52410256,17.8555738 C6.3825641,8.40967213 3.21641026,4.03918033 0.344615385,1.00803279 C0.240905901,0.864740942 0.260587562,0.668324286 0.390749985,0.547624295 C0.520912407,0.426924305 0.72175731,0.418846042 0.861538462,0.528688525 C3.86974359,3.63737705 7.09333333,8.12065574 8.26358974,17.7709836 C9.29025641,26.23 8.50769231,30.9177049 7.93333333,34.3154098 L7.93333333,34.4070492 C7.90428151,34.581014 7.74646422,34.705584 7.56717949,34.6960656 Z" id="_Path_123"></path>
                            </g>
                        </g>
                        <g id="_Group_180" transform="translate(0.000000, 20.442623)">
                            <g id="_Group_181" fill="#1B2E5A">
                                <path d="M20.44,22.1696721 C19.7220513,18.687377 17.094359,14.775082 12.054359,12.47 C7.01435897,10.164918 1.81641026,8.82557377 0.875897436,5.85786885 C-0.0646153846,2.89016393 3.13025641,-0.542786885 9.70666667,0.923442623 C16.2830769,2.38967213 23.3476923,11.9554098 22.9384615,18.4054098 L20.44,22.1696721 Z" id="_Path_124"></path>
                            </g>
                            <g id="_Group_182" transform="translate(5.743590, 2.819672)" fill="#FFFFFF">
                                <path d="M16.1825641,17.4537705 C16.0058091,17.453091 15.8547807,17.3285298 15.8235897,17.1577049 C14.4810256,8.41672131 6.92820513,1.74114754 0.990769231,1.2195082 C0.89597732,1.21240382 0.808149241,1.16793373 0.747288402,1.09622626 C0.686427564,1.0245188 0.657715767,0.931679263 0.667692308,0.838852459 C0.686663219,0.645771507 0.858219557,0.502283356 1.05538462,0.514590164 C7.25846154,1.06442623 15.1415385,7.98672131 16.534359,17.0519672 C16.5603327,17.2437469 16.4270727,17.4213173 16.2328205,17.4537705 L16.1825641,17.4537705 Z" id="_Path_125"></path>
                            </g>
                        </g>
                    </g>
                    <g id="_Group_183" transform="translate(261.500000, 0.558352)">
                        <g id="_Group_184">
                            <g id="_Group_185" fill="#1B2E5A">
                                <path d="M2.95555556,32.8023529 C2.95555556,32.8023529 -0.323703704,25.5176471 0.211111111,19.2776471 C0.76,12.9247059 3.02592593,6.91058824 8.43037037,2.71058824 C13.8348148,-1.48941176 18.0218519,0.416470588 18.9085185,1.94823529 C19.7951852,3.48 19.8162963,6.51529412 15.7981481,9.81176471 C11.78,13.1082353 7.38888889,22.1082353 8.63444444,31.1011765 L6.79074074,36.36 L2.95555556,32.8023529 Z" id="_Path_126"></path>
                            </g>
                            <g id="_Group_186" transform="translate(3.518519, 1.411765)" fill="#FFFFFF">
                                <path d="M1.40740741,32.0823543 C1.27846991,32.082706 1.15966753,32.0122872 1.09777778,31.8988235 C-0.267407407,29.3717647 -0.478518519,18.8752941 1.73111111,13.0023529 C4.41925926,5.85882353 9.26074074,1.82117647 12.8988889,0.430588235 C13.0180665,0.373786711 13.1589084,0.388643997 13.263699,0.469071716 C13.3684896,0.549499435 13.4196131,0.681977315 13.3961195,0.812217163 C13.372626,0.942457011 13.2784647,1.0485649 13.1522222,1.08705882 C9.6337037,2.42823529 4.98925926,6.33176471 2.38555556,13.2494118 C0.274444444,18.8964706 0.436296296,29.1952941 1.68185185,31.56 C1.74158131,31.669501 1.7392092,31.8025048 1.67561332,31.9097926 C1.61201745,32.0170805 1.49665716,32.0826941 1.37222222,32.0823543 L1.40740741,32.0823543 Z" id="_Path_127"></path>
                            </g>
                        </g>
                        <g id="_Group_187" transform="translate(2.814815, 5.647059)">
                            <g id="_Group_188" fill="#1B2E5A">
                                <path d="M15.6714815,42.3529412 C16.2203704,38.7247059 16.3118519,36.4941176 19.6825926,34.2776471 C23.0533333,32.0611765 26.0159259,30.48 26.2903704,27.3105882 C26.5648148,24.1411765 24.4466667,20.5623529 24.5592593,17.7952941 C24.6718519,15.0282353 26.3537037,13.7364706 29.9144444,11.3011765 C33.4751852,8.86588235 37.1274074,4.71529412 33.63,1.75764706 C30.1325926,-1.2 24.9111111,1.54588235 22.5396296,3.61411765 C20.1681481,5.68235294 18.232963,6.43764706 14.5877778,5.47058824 C10.9425926,4.50352941 7.38185185,7.03058824 8.25444444,11.6894118 C9.12703704,16.3482353 8.66962963,18.4729412 5.74222222,18.3105882 C2.81481481,18.1482353 -1.50592593,21.1764706 1.94222222,28.2352941 L15.6714815,42.3529412 Z" id="_Path_128"></path>
                            </g>
                            <g id="_Group_189" transform="translate(7.740741, 2.823529)" fill="#FFFFFF">
                                <path d="M0.506666667,32.2447107 L0.464444444,32.2447107 C0.27142146,32.2190132 0.134033128,32.0436139 0.154814815,31.8494118 C1.82962963,17.7317647 15.762963,2.64705882 22.0962963,0.451764706 C22.218678,0.392960531 22.3638631,0.40999124 22.4694169,0.495533007 C22.5749706,0.581074774 22.6220774,0.719879271 22.5904795,0.852255499 C22.5588816,0.984631727 22.4542117,1.08698284 22.3214815,1.11529412 C16.1288889,3.23294118 2.49814815,18.0988235 0.851481481,31.9341176 C0.833371323,32.1112413 0.684167486,32.245635 0.506666667,32.2447107 Z" id="_Path_129"></path>
                            </g>
                            <g id="_Group_190" transform="translate(11.259259, 9.176471)" fill="#FFFFFF">
                                <path d="M3.01888889,10.3411765 C2.86327825,10.3388933 2.7268672,10.2362682 2.68111111,10.0870588 C1.75494525,6.91712486 1.0935244,3.67533704 0.703703704,0.395294118 C0.691133235,0.269200373 0.746580235,0.145957922 0.849158353,0.0719910075 C0.951736471,-0.00197590705 1.08586165,-0.0154299496 1.20101022,0.036696888 C1.3161588,0.0888237256 1.39483696,0.198612136 1.40740741,0.324705882 C1.78814172,3.55989183 2.44020565,6.75710475 3.35666667,9.88235294 C3.41162998,10.0673935 3.30816086,10.2623919 3.12444444,10.32 L3.01888889,10.3411765 Z" id="_Path_130"></path>
                            </g>
                            <g id="_Group_191" transform="translate(9.851852, 24.705882)" fill="#FFFFFF">
                                <path d="M0.492592593,2.42823529 C0.298270181,2.4672201 0.109234853,2.34080638 0.0703703704,2.14588235 C0.031505888,1.95095832 0.15752944,1.76133775 0.351851852,1.72235294 C4.29344907,0.0428901672 8.6951959,-0.206707036 12.8003704,1.01647059 C12.9830178,1.08298897 13.0797147,1.28323949 13.0185185,1.46823529 C12.955241,1.65049612 12.7577516,1.74797434 12.5751852,1.68705882 C8.6243236,0.543759418 4.4022082,0.792888064 0.612222222,2.39294118 C0.575071834,2.41254302 0.534407021,2.42454029 0.492592593,2.42823529 L0.492592593,2.42823529 Z" id="_Path_131"></path>
                            </g>
                        </g>
                    </g>
                </g>
                <g id="Group" transform="translate(30.000000, 0.000000)">
                    <path d="M232.902689,97.0323714 C231.935669,97.5964238 230.653947,98.3010501 229.083971,99.1251641 C202.715244,113.062179 96.0159135,162.299037 85.2200121,166.735019 C83.0453172,167.632935 80.156596,168.976293 77.0527853,170.272208 C71.1810209,172.716435 64.5467469,174.957709 60.5975643,173.578329 C47.7671287,169.077331 3.76459671,118.895993 0.196228225,107.810869 C-1.33672454,103.042781 6.46731849,99.1998439 11.2433611,96.7266234 C11.8198712,96.4305398 12.3584762,96.1529065 12.8230341,95.8937235 C26.9642809,88.0866052 139.526561,44.2486607 149.124485,42.0258372 C152.542996,41.229838 156.074341,39.9339231 159.595107,39.0254649 C165.132778,37.5995192 170.669567,37.1461687 175.780585,41.127922 C185.229533,48.4992615 217.107722,72.4003245 223.212206,77.7061075 C227.63388,81.5393797 242.333126,91.5315423 232.902689,97.0323714" id="Fill-14" fill="#000000" opacity="0.191662016"></path>
                    <path d="M0.53737601,71.7103099 C0.0607298948,75.7502613 -1.08691435,92.4980162 2.75087836,97.1232764 C4.93096271,99.7496849 40.0444795,137.876616 45.7272972,142.637421 C49.2089244,145.553404 53.6280143,149.424364 58.3469868,149.969185 C73.582074,151.729512 219.270454,77.4912251 223.397576,75.6772077 C226.402557,74.3569622 224.371095,63.1190321 223.770451,58 L0.53737601,71.7103099" id="Fill-15" fill="#1B2E5A"></path>
                    <path d="M218,72.8188303 C190.149296,85.5597847 161.355232,99.9478686 133.097589,113.397238 C129.662384,115.026854 126.235987,116.654719 122.81928,118.248433 C106.030817,126.129435 89.496911,133.564723 73.5364205,140 C73.3347123,137.985966 73.3787534,133.432498 73,131.672407 C89.2687782,124.194211 105.61595,116.716015 122.000115,109.237819 C153.955449,94.6492078 185.770731,79.5886117 217.507621,65 C217.876685,67.3459118 218,70.2233535 218,72.8188303" id="Fill-16" fill="#B7A89D"></path>
                    <path d="M123,118.080273 C106.150636,126.022203 89.5567539,133.514973 73.5383663,140 C73.3359264,137.970396 73.3801273,133.381725 73,131.608027 C89.3277935,124.072018 105.734264,116.536009 122.177864,109 L123,118.080273" id="Fill-17" fill="#1B2E5A"></path>
                    <path d="M221.06044,62.9938224 C220.143294,63.5296268 218.926311,64.1971864 217.435949,64.9798121 C192.408441,78.1992482 91.1343383,124.902066 80.8869936,129.109448 C78.8234147,129.960587 76.079913,131.23422 73.1353446,132.464814 C67.561036,134.783705 61.2653567,136.908476 57.5174036,135.599708 C45.3387606,131.331719 3.57333488,83.7320872 0.186067142,73.2189025 C-1.26813867,68.6944297 6.13869856,65.0500816 10.672399,62.7048394 C11.2191592,62.4237617 11.7306446,62.1602514 12.1715803,61.9143084 C25.5927799,54.5096674 132.432372,12.9268554 141.542103,10.8196509 C144.787389,10.0633762 148.137619,8.83453961 151.479911,7.97286076 C156.735864,6.62017428 161.991817,6.18977404 166.842109,9.96763413 C175.810741,16.9594422 206.068627,39.6292378 211.86164,44.6631639 C216.06023,48.2996068 230.010552,57.7771958 221.06044,62.9938224" id="Fill-18" fill="#716E7D"></path>
                    <path d="M218,65.2395947 C203.881869,72.7176694 165.511912,90.8770699 132.880675,106.055471 C129.305894,107.723243 125.800862,109.346036 122.410603,110.915911 C122.348802,110.941488 122.286117,110.976766 122.224315,111.003224 C101.680585,120.519491 85.1265888,128.060184 81.2948904,129.630942 C79.2289516,130.485554 76.4823125,131.764385 73.5343769,133 C70.1441184,128.810726 66.7000043,124.638209 63.212629,120.502734 C61.2173207,118.130282 59.1955259,115.756948 57.1569564,113.402135 C42.262774,96.0894088 26.6614049,79.2617564 11,62.9553379 C11.5473855,62.6731132 12.0594558,62.4085274 12.5008957,62.1615807 C17.8149492,59.2237972 37.7680329,50.9078677 60.5118997,41.7972991 C64.0081037,40.4038143 67.5749382,38.9829889 71.1585473,37.5639274 C91.589269,29.4667222 112.751898,21.3086622 126.69257,16.1668795 C130.577241,14.729297 133.905698,13.5210222 136.491653,12.6223127 C139.194148,11.6865612 141.101169,11.0700764 142.019364,10.8584078 C145.268361,10.0990468 148.622422,8.86519533 151.968536,8 C155.288164,10.910443 158.617504,13.820886 161.972447,16.7410305 C164.699663,19.1126006 167.437473,21.4938722 170.182347,23.8672062 C180.741589,33.0218724 191.398831,42.1756567 201.974849,51.3223854 L211.802184,59.8420458 C213.876951,61.6412288 215.942007,63.4404118 218,65.2395947" id="Fill-19" fill="#DDCABD"></path>
                    <path d="M146,42.4202608 L99.3882773,69 L71,37.4950351 C91.5221057,29.3607489 112.779392,21.1653293 126.78242,16 L146,42.4202608" id="Fill-20" fill="#1B2E5A"></path>
                    <path d="M22.1307614,95.5380305 C23.6910173,98.420913 34.7242558,110.414591 36.3959586,111.726524 C38.5134488,113.389726 46.4386574,106.980856 46.9834096,105.573123 C47.5406439,104.131681 33.8879586,90.5484262 32.0495313,89.1965761 C30.3368161,87.9378652 20.7773508,93.0392367 22.1307614,95.5380305" id="Fill-21" fill="#393539"></path>
                    <path d="M24.0924684,96.8177425 C24.0924684,96.8177425 35.6071454,109.281987 36.6948312,109.932296 C37.782517,110.582604 43.4384832,106.355599 43.9823261,105.488521 C44.526169,104.621444 32.344088,92.5907378 31.582708,92.0488141 C30.8213279,91.5068904 23.0717841,95.6307129 24.0924684,96.8177425" id="Fill-22" fill="#565960"></path>
                    <path d="M193.59213,36.7946907 C189.470436,32.9816639 185.350458,29.1677644 181.228764,25.3538649 C180.005391,24.2219134 178.178487,26.0686437 179.40787,27.2049589 C183.529564,31.0197311 187.649542,34.8327579 191.771236,38.6457847 C192.994609,39.7786089 194.821513,37.9310058 193.59213,36.7946907" id="Fill-23" fill="#B8C5CC"></path>
                    <path d="M211,59.2720733 C211,59.2720733 163.127769,93.7769784 134.429927,60.7024199 L107.06055,77.2573578 L132.407776,105.536723 C128.84791,107.206344 125.357502,108.830935 121.981388,110.402551 L111.220027,98.3231851 L63.0304065,120 C61.0434232,117.624918 59.0300639,115.248954 57,112.89153 L104.511761,90.7829627 L60.3409454,41.207325 C63.8225622,39.8122956 67.3745147,38.3898954 70.943172,36.969261 L99.0871203,68.3653695 C111.904921,60.9672989 145.297671,41.8774689 145.297671,41.8774689 L126.24549,15.5484957 C130.113953,14.1093198 133.428522,12.8997057 136.003688,12 L144.030749,23.2388162 L161.378169,16.1232832 C164.094005,18.497482 166.820393,20.8813931 169.553814,23.2573578 L149.948618,31.530412 L159.821112,45.3473839 L144.400891,54.6720078 C152.41828,62.0621321 172.930806,73.6735448 203.535625,52.7657619 L211,59.2720733" id="Fill-24" fill="#FFFFFE"></path>
                    <path d="M133,114.073347 C129.566021,115.730672 126.139085,117.378221 122.730634,119 L122,110.828013 L132.471831,106 L133,114.073347" id="Fill-25" fill="#D6D5CE"></path>
                    <path d="M122,110.863692 L121.867891,111.099894 C101.37422,120.57434 84.8605613,128.081894 81.0381997,129.645748 C78.9772951,130.496604 76.2373489,131.769815 73.2965965,133 C69.9145992,128.829137 66.4788774,124.674957 63,120.557656 L111.273608,99 L122,110.863692" id="Fill-26" fill="#1B2E5A"></path>
                    <polyline id="Fill-27" fill="#AF9680" points="41 55.1367671 58.4007087 47 79 71.3243836 62.1379263 79 41 55.1367671"></polyline>
                    <polyline id="Fill-28" fill="#AF9680" points="68 88.6680587 76.609064 100 94 91.0192289 85.655968 82 68 88.6680587"></polyline>
                    <polyline id="Fill-29" fill="#AF9680" points="50 98.1145656 62.8507373 91 70 102.483651 57.380357 109 50 98.1145656"></polyline>
                    <polyline id="Fill-30" fill="#AF9680" points="115 79.7142857 123.348624 75 128 82.7142857 120.458782 87 115 79.7142857"></polyline>
                    <polyline id="Fill-31" fill="#AF9680" points="122 89.3385155 136.935558 81 151 94.2061856 132.987845 102 122 89.3385155"></polyline>
                    <polyline id="Fill-32" fill="#AF9680" points="158 34.1860742 169.111111 29 174 36.7649276 162 42 158 34.1860742"></polyline>
                    <path d="M12.6246901,97.8224301 C10.80789,96.0063736 8.99193853,94.1903171 7.17513845,92.3742606 C6.01428721,91.2142619 4.21361007,93.0158716 5.37530989,94.1775699 C7.19210996,95.9936264 9.00806147,97.8088331 10.8248615,99.6257394 C11.9857128,100.785738 13.7863899,98.9841284 12.6246901,97.8224301" id="Fill-33" fill="#2F2B2C"></path>
                    <path d="M14.4998058,100 C12.501618,100 12.498512,103 14.4998058,103 C16.4979935,103 16.5021349,100 14.4998058,100" id="Fill-34" fill="#2F2B2C"></path>
                    <path d="M41.2649287,127 C40.9460902,128.802223 40.4734795,131.505999 40,134.345625 C45.0718775,139.032463 50.5112445,143.294107 56.122628,147 C56.7689926,144.485886 57.0452614,141.679781 56.994004,139.081863 C51.4582035,135.467713 46.2038844,131.416902 41.2649287,127" id="Fill-35" fill="#584C52"></path>
                    <path d="M64,146.774904 C63.8050601,144.222754 63.5114061,141.55215 63.3172957,139 C62.3691414,139.377728 61.0087101,139.475474 60,139.323057 C60.0821236,141.808939 60.1659063,144.29482 60.2488594,146.780702 C61.1190377,147.170027 63.0634591,146.958798 64,146.774904" id="Fill-36" fill="#584C52"></path>
                    <path d="M216.614086,54.0326886 C216.537453,54.0247919 216.461742,54.014921 216.386032,54.0060371 C215.662168,53.9211473 214.968772,54.7473428 215.001087,55.4866743 C215.037096,56.3622243 215.611386,56.876499 216.386032,56.9673114 C216.461742,56.9761952 216.537453,56.9860661 216.614086,56.9939629 C217.336104,57.0788527 218.0295,56.2526572 217.999032,55.5133257 C217.9621,54.6397498 217.386886,54.123501 216.614086,54.0326886" id="Fill-37" fill="#B8C5CC"></path>
                    <path d="M75.3244676,43.7574497 C72.6963898,48.8620173 67.5024319,58.7412625 60.5993474,57.9558101 C56.9550794,57.5377749 53.9678309,54.657783 51.4799172,51.2620106 C49.245175,48.2258009 47.4239171,44.777665 45.8908717,42.3602172 C40.8186814,34.3320213 37.8743582,21.6679111 41.8436318,12.7224815 C44.112539,7.59085938 48.1159776,3.80323356 52.7843199,1.7532029 C58.3041594,-0.673844893 64.7692309,-0.681699417 70.4458791,2.36323756 C71.6635552,3.00905395 72.8374299,3.80323356 73.9675034,4.74577639 C85.093033,14.0315687 81.0370328,32.6467897 75.3244676,43.7574497" id="Fill-63" fill="#3FAF5D"></path>
                    <path d="M73.9091822,4.7414359 C72.7697369,3.79881624 71.5861271,3.0045719 70.3583527,2.35870288 C67.0583778,0.602637379 63.4942989,-0.133129629 60,0.0196096672 C62.9245763,0.143546696 65.8579854,0.895024031 68.6094366,2.35870288 C69.837211,3.0045719 71.0208209,3.79881624 72.1602662,4.7414359 C83.3780609,14.0279851 79.2884239,32.6447232 73.5293671,43.7562888 C71.0923674,48.4501856 66.4665729,57.1755269 60.3268176,57.9392234 C60.361266,57.9435874 60.394831,57.9523154 60.4301627,57.9558065 C67.3904952,58.7413229 72.6275271,48.8612725 75.2773998,43.7562888 C81.03734,32.6447232 85.126977,14.0279851 73.9091822,4.7414359" id="Fill-64" fill="#276739"></path>
                    <path d="M72.8405713,31.2478419 C71.2239012,33.2756645 69.0466187,34.8074103 66.6184891,35.7821576 C65.6088513,36.1912033 64.5563642,36.4966822 63.4842379,36.6959832 C60.6731422,37.2442786 57.7174299,37.0615135 55.0393457,36.0615271 C48.8797521,33.7630381 44.6394521,27.3236137 45.0242035,20.9085579 C45.622309,10.8303668 55.5660356,5.46925658 64.2082133,7.38393881 C65.2615931,7.61892254 66.288192,7.95921379 67.2880101,8.41090474 C68.2512277,8.84605979 69.1894499,9.39435516 70.063398,10.0653643 C71.2239012,10.9269713 72.3040618,11.9965824 73.2324643,13.2672351 C77.0719444,18.4977989 76.8934054,26.1826371 72.8405713,31.2478419" id="Fill-65" fill="#F9D372"></path>
                    <path d="M54.6984727,36 C48.7480201,33.7063772 44.6516941,27.2805859 45.0233817,20.8791116 C45.6011793,10.8222574 55.2072795,5.47249737 63.5560232,7.38312596 C65.7119843,15.8506845 59.5718071,28.1568696 54.6984727,36" id="Fill-66" fill="#ECBE54"></path>
                    <path d="M66.2943685,36.0630769 C65.2331521,36.4824615 64.1268973,36.7956615 63,37 C66.3591112,27.604 67.7018173,17.86 66.9980929,8 C68.0105178,8.44615385 68.9966702,9.00830769 69.9152652,9.69627692 C70.3468828,18.6363077 69.1280321,27.5058462 66.2943685,36.0630769" id="Fill-67" fill="#ECBE54"></path>
                </g>
            </g>
        </g>
    </g>
</svg>